%!PS-Adobe-3.0
%%Creator: graphviz version 2.38.0 (20140413.2041)
%%Title: graph_ID_83
%%Pages: (atend)
%%BoundingBox: (atend)
%%EndComments
save
%%BeginProlog
/DotDict 200 dict def
DotDict begin

/setupLatin1 {
mark
/EncodingVector 256 array def
 EncodingVector 0

ISOLatin1Encoding 0 255 getinterval putinterval
EncodingVector 45 /hyphen put

% Set up ISO Latin 1 character encoding
/starnetISO {
        dup dup findfont dup length dict begin
        { 1 index /FID ne { def }{ pop pop } ifelse
        } forall
        /Encoding EncodingVector def
        currentdict end definefont
} def
/Times-Roman starnetISO def
/Times-Italic starnetISO def
/Times-Bold starnetISO def
/Times-BoldItalic starnetISO def
/Helvetica starnetISO def
/Helvetica-Oblique starnetISO def
/Helvetica-Bold starnetISO def
/Helvetica-BoldOblique starnetISO def
/Courier starnetISO def
/Courier-Oblique starnetISO def
/Courier-Bold starnetISO def
/Courier-BoldOblique starnetISO def
cleartomark
} bind def

%%BeginResource: procset graphviz 0 0
/coord-font-family /Times-Roman def
/default-font-family /Times-Roman def
/coordfont coord-font-family findfont 8 scalefont def

/InvScaleFactor 1.0 def
/set_scale {
       dup 1 exch div /InvScaleFactor exch def
       scale
} bind def

% styles
/solid { [] 0 setdash } bind def
/dashed { [9 InvScaleFactor mul dup ] 0 setdash } bind def
/dotted { [1 InvScaleFactor mul 6 InvScaleFactor mul] 0 setdash } bind def
/invis {/fill {newpath} def /stroke {newpath} def /show {pop newpath} def} bind def
/bold { 2 setlinewidth } bind def
/filled { } bind def
/unfilled { } bind def
/rounded { } bind def
/diagonals { } bind def
/tapered { } bind def

% hooks for setting color 
/nodecolor { sethsbcolor } bind def
/edgecolor { sethsbcolor } bind def
/graphcolor { sethsbcolor } bind def
/nopcolor {pop pop pop} bind def

/beginpage {	% i j npages
	/npages exch def
	/j exch def
	/i exch def
	/str 10 string def
	npages 1 gt {
		gsave
			coordfont setfont
			0 0 moveto
			(\() show i str cvs show (,) show j str cvs show (\)) show
		grestore
	} if
} bind def

/set_font {
	findfont exch
	scalefont setfont
} def

% draw text fitted to its expected width
/alignedtext {			% width text
	/text exch def
	/width exch def
	gsave
		width 0 gt {
			[] 0 setdash
			text stringwidth pop width exch sub text length div 0 text ashow
		} if
	grestore
} def

/boxprim {				% xcorner ycorner xsize ysize
		4 2 roll
		moveto
		2 copy
		exch 0 rlineto
		0 exch rlineto
		pop neg 0 rlineto
		closepath
} bind def

/ellipse_path {
	/ry exch def
	/rx exch def
	/y exch def
	/x exch def
	matrix currentmatrix
	newpath
	x y translate
	rx ry scale
	0 0 1 0 360 arc
	setmatrix
} bind def

/endpage { showpage } bind def
/showpage { } def

/layercolorseq
	[	% layer color sequence - darkest to lightest
		[0 0 0]
		[.2 .8 .8]
		[.4 .8 .8]
		[.6 .8 .8]
		[.8 .8 .8]
	]
def

/layerlen layercolorseq length def

/setlayer {/maxlayer exch def /curlayer exch def
	layercolorseq curlayer 1 sub layerlen mod get
	aload pop sethsbcolor
	/nodecolor {nopcolor} def
	/edgecolor {nopcolor} def
	/graphcolor {nopcolor} def
} bind def

/onlayer { curlayer ne {invis} if } def

/onlayers {
	/myupper exch def
	/mylower exch def
	curlayer mylower lt
	curlayer myupper gt
	or
	{invis} if
} def

/curlayer 0 def

%%EndResource
%%EndProlog
%%BeginSetup
14 default-font-family set_font
1 setmiterlimit
% /arrowlength 10 def
% /arrowwidth 5 def

% make sure pdfmark is harmless for PS-interpreters other than Distiller
/pdfmark where {pop} {userdict /pdfmark /cleartomark load put} ifelse
% make '<<' and '>>' safe on PS Level 1 devices
/languagelevel where {pop languagelevel}{1} ifelse
2 lt {
    userdict (<<) cvn ([) cvn load put
    userdict (>>) cvn ([) cvn load put
} if

%%EndSetup
setupLatin1
%%Page: 1 1
%%PageBoundingBox: 36 36 395 80
%%PageOrientation: Portrait
0 0 1 beginpage
gsave
36 36 359 44 boxprim clip newpath
1 1 set_scale 0 rotate 40 40 translate
% node_ID_78
gsave
1 setlinewidth
0 0 0 nodecolor
newpath 54 36 moveto
0 36 lineto
0 32 lineto
-4 32 lineto
-4 28 lineto
0 28 lineto
0 8 lineto
-4 8 lineto
-4 4 lineto
0 4 lineto
0 0 lineto
54 0 lineto
closepath stroke
1 setlinewidth
0 0 0 nodecolor
newpath 0 32 moveto
4 32 lineto
4 28 lineto
0 28 lineto
stroke
1 setlinewidth
0 0 0 nodecolor
newpath 0 8 moveto
4 8 lineto
4 4 lineto
0 4 lineto
stroke
0 0 0 nodecolor
14 /Times-Roman set_font
11.5 14.3 moveto 31 (DML) alignedtext
grestore
% node_ID_79
gsave
1 setlinewidth
0 0 0 nodecolor
newpath 196 36 moveto
142 36 lineto
142 32 lineto
138 32 lineto
138 28 lineto
142 28 lineto
142 8 lineto
138 8 lineto
138 4 lineto
142 4 lineto
142 0 lineto
196 0 lineto
closepath stroke
1 setlinewidth
0 0 0 nodecolor
newpath 142 32 moveto
146 32 lineto
146 28 lineto
142 28 lineto
stroke
1 setlinewidth
0 0 0 nodecolor
newpath 142 8 moveto
146 8 lineto
146 4 lineto
142 4 lineto
stroke
0 0 0 nodecolor
14 /Times-Roman set_font
150.5 14.3 moveto 37 (donuts) alignedtext
grestore
% node_ID_78->node_ID_79
gsave
1 setlinewidth
dashed
0 0 0 edgecolor
newpath 54 18 moveto
75.77 18 107.08 18 131.38 18 curveto
stroke
0 0 0 edgecolor
newpath 141.66 18 moveto
131.66 22.5 lineto
136.66 18 lineto
131.66 18 lineto
131.66 18 lineto
131.66 18 lineto
136.66 18 lineto
131.66 13.5 lineto
141.66 18 lineto
closepath fill
1 setlinewidth
solid
0 0 0 edgecolor
newpath 141.66 18 moveto
131.66 22.5 lineto
136.66 18 lineto
131.66 18 lineto
131.66 18 lineto
131.66 18 lineto
136.66 18 lineto
131.66 13.5 lineto
141.66 18 lineto
closepath stroke
0 0 0 edgecolor
14 /Times-Roman set_font
72 21.8 moveto 52 (<<use>>) alignedtext
grestore
% node_ID_80
gsave
1 setlinewidth
0 0 0 nodecolor
newpath 351 36 moveto
284 36 lineto
284 32 lineto
280 32 lineto
280 28 lineto
284 28 lineto
284 8 lineto
280 8 lineto
280 4 lineto
284 4 lineto
284 0 lineto
351 0 lineto
closepath stroke
1 setlinewidth
0 0 0 nodecolor
newpath 284 32 moveto
288 32 lineto
288 28 lineto
284 28 lineto
stroke
1 setlinewidth
0 0 0 nodecolor
newpath 284 8 moveto
288 8 lineto
288 4 lineto
284 4 lineto
stroke
0 0 0 nodecolor
14 /Times-Roman set_font
292 14.3 moveto 51 (Graphviz) alignedtext
grestore
% node_ID_79->node_ID_80
gsave
1 setlinewidth
dashed
0 0 0 edgecolor
newpath 196.19 18 moveto
217.75 18 248.73 18 273.86 18 curveto
stroke
0 0 0 edgecolor
newpath 283.87 18 moveto
273.87 22.5 lineto
278.87 18 lineto
273.87 18 lineto
273.87 18 lineto
273.87 18 lineto
278.87 18 lineto
273.87 13.5 lineto
283.87 18 lineto
closepath fill
1 setlinewidth
solid
0 0 0 edgecolor
newpath 283.87 18 moveto
273.87 22.5 lineto
278.87 18 lineto
273.87 18 lineto
273.87 18 lineto
273.87 18 lineto
278.87 18 lineto
273.87 13.5 lineto
283.87 18 lineto
closepath stroke
0 0 0 edgecolor
14 /Times-Roman set_font
214 21.8 moveto 52 (<<use>>) alignedtext
grestore
endpage
showpage
grestore
%%PageTrailer
%%EndPage: 1
%%Trailer
%%Pages: 1
%%BoundingBox: 36 36 395 80
end
restore
%%EOF
