%!PS-Adobe-3.0
%%Creator: graphviz version 2.38.0 (20140413.2041)
%%Title: graph_ID_70
%%Pages: (atend)
%%BoundingBox: (atend)
%%EndComments
save
%%BeginProlog
/DotDict 200 dict def
DotDict begin

/setupLatin1 {
mark
/EncodingVector 256 array def
 EncodingVector 0

ISOLatin1Encoding 0 255 getinterval putinterval
EncodingVector 45 /hyphen put

% Set up ISO Latin 1 character encoding
/starnetISO {
        dup dup findfont dup length dict begin
        { 1 index /FID ne { def }{ pop pop } ifelse
        } forall
        /Encoding EncodingVector def
        currentdict end definefont
} def
/Times-Roman starnetISO def
/Times-Italic starnetISO def
/Times-Bold starnetISO def
/Times-BoldItalic starnetISO def
/Helvetica starnetISO def
/Helvetica-Oblique starnetISO def
/Helvetica-Bold starnetISO def
/Helvetica-BoldOblique starnetISO def
/Courier starnetISO def
/Courier-Oblique starnetISO def
/Courier-Bold starnetISO def
/Courier-BoldOblique starnetISO def
cleartomark
} bind def

%%BeginResource: procset graphviz 0 0
/coord-font-family /Times-Roman def
/default-font-family /Times-Roman def
/coordfont coord-font-family findfont 8 scalefont def

/InvScaleFactor 1.0 def
/set_scale {
       dup 1 exch div /InvScaleFactor exch def
       scale
} bind def

% styles
/solid { [] 0 setdash } bind def
/dashed { [9 InvScaleFactor mul dup ] 0 setdash } bind def
/dotted { [1 InvScaleFactor mul 6 InvScaleFactor mul] 0 setdash } bind def
/invis {/fill {newpath} def /stroke {newpath} def /show {pop newpath} def} bind def
/bold { 2 setlinewidth } bind def
/filled { } bind def
/unfilled { } bind def
/rounded { } bind def
/diagonals { } bind def
/tapered { } bind def

% hooks for setting color 
/nodecolor { sethsbcolor } bind def
/edgecolor { sethsbcolor } bind def
/graphcolor { sethsbcolor } bind def
/nopcolor {pop pop pop} bind def

/beginpage {	% i j npages
	/npages exch def
	/j exch def
	/i exch def
	/str 10 string def
	npages 1 gt {
		gsave
			coordfont setfont
			0 0 moveto
			(\() show i str cvs show (,) show j str cvs show (\)) show
		grestore
	} if
} bind def

/set_font {
	findfont exch
	scalefont setfont
} def

% draw text fitted to its expected width
/alignedtext {			% width text
	/text exch def
	/width exch def
	gsave
		width 0 gt {
			[] 0 setdash
			text stringwidth pop width exch sub text length div 0 text ashow
		} if
	grestore
} def

/boxprim {				% xcorner ycorner xsize ysize
		4 2 roll
		moveto
		2 copy
		exch 0 rlineto
		0 exch rlineto
		pop neg 0 rlineto
		closepath
} bind def

/ellipse_path {
	/ry exch def
	/rx exch def
	/y exch def
	/x exch def
	matrix currentmatrix
	newpath
	x y translate
	rx ry scale
	0 0 1 0 360 arc
	setmatrix
} bind def

/endpage { showpage } bind def
/showpage { } def

/layercolorseq
	[	% layer color sequence - darkest to lightest
		[0 0 0]
		[.2 .8 .8]
		[.4 .8 .8]
		[.6 .8 .8]
		[.8 .8 .8]
	]
def

/layerlen layercolorseq length def

/setlayer {/maxlayer exch def /curlayer exch def
	layercolorseq curlayer 1 sub layerlen mod get
	aload pop sethsbcolor
	/nodecolor {nopcolor} def
	/edgecolor {nopcolor} def
	/graphcolor {nopcolor} def
} bind def

/onlayer { curlayer ne {invis} if } def

/onlayers {
	/myupper exch def
	/mylower exch def
	curlayer mylower lt
	curlayer myupper gt
	or
	{invis} if
} def

/curlayer 0 def

%%EndResource
%%EndProlog
%%BeginSetup
14 default-font-family set_font
1 setmiterlimit
% /arrowlength 10 def
% /arrowwidth 5 def

% make sure pdfmark is harmless for PS-interpreters other than Distiller
/pdfmark where {pop} {userdict /pdfmark /cleartomark load put} ifelse
% make '<<' and '>>' safe on PS Level 1 devices
/languagelevel where {pop languagelevel}{1} ifelse
2 lt {
    userdict (<<) cvn ([) cvn load put
    userdict (>>) cvn ([) cvn load put
} if

%%EndSetup
setupLatin1
%%Page: 1 1
%%PageBoundingBox: 36 36 451 417
%%PageOrientation: Portrait
0 0 1 beginpage
gsave
36 36 415 381 boxprim clip newpath
1 1 set_scale 0 rotate 40 40 translate
% record_ID_61
gsave
1 setlinewidth
0 0 0 nodecolor
newpath 146 258.5 moveto
146 372.5 lineto
252 372.5 lineto
252 258.5 lineto
closepath stroke
0 0 0 nodecolor
14 /Times-Roman set_font
161 357.3 moveto 76 (<<abstract>>) alignedtext
0 0 0 nodecolor
14 /Times-Roman set_font
190 342.3 moveto 18 (OS) alignedtext
1 setlinewidth
0 0 0 nodecolor
newpath 146 334.5 moveto
252 334.5 lineto
stroke
0 0 0 nodecolor
14 /Times-Roman set_font
154 319.3 moveto 83 (- name : String) alignedtext
0 0 0 nodecolor
14 /Times-Roman set_font
154 304.3 moveto 70 (- born : Date) alignedtext
1 setlinewidth
0 0 0 nodecolor
newpath 146 296.5 moveto
252 296.5 lineto
stroke
0 0 0 nodecolor
14 /Times-Roman set_font
154 281.3 moveto 88 (+ play \(\) : Love) alignedtext
0 0 0 nodecolor
14 /Times-Roman set_font
154 266.3 moveto 90 (+ work \(\) : Hate) alignedtext
grestore
% record_ID_62
gsave
1 setlinewidth
0 0 0 nodecolor
newpath 0 .5 moveto
0 84.5 lineto
106 84.5 lineto
106 .5 lineto
closepath stroke
0 0 0 nodecolor
14 /Times-Roman set_font
36.5 69.3 moveto 33 (Linux) alignedtext
1 setlinewidth
0 0 0 nodecolor
newpath 0 61.5 moveto
106 61.5 lineto
stroke
0 0 0 nodecolor
14 /Times-Roman set_font
51 46.3 moveto 4 ( ) alignedtext
1 setlinewidth
0 0 0 nodecolor
newpath 0 38.5 moveto
106 38.5 lineto
stroke
0 0 0 nodecolor
14 /Times-Roman set_font
8 23.3 moveto 88 (+ play \(\) : Love) alignedtext
0 0 0 nodecolor
14 /Times-Roman set_font
8 8.3 moveto 90 (+ work \(\) : Hate) alignedtext
grestore
% record_ID_61->record_ID_62
gsave
1 setlinewidth
0 0 0 edgecolor
newpath 127.11 289.86 moveto
95.71 275.1 62 252.88 44 221 curveto
20.41 179.22 28.8 122.71 39.02 84.77 curveto
stroke
1 setlinewidth
solid
0 0 0 edgecolor
newpath 124.56 296.38 moveto
145.69 297.9 lineto
130.12 283.54 lineto
closepath stroke
grestore
% record_ID_63
gsave
1 setlinewidth
0 0 0 nodecolor
newpath 53 136.5 moveto
53 220.5 lineto
159 220.5 lineto
159 136.5 lineto
closepath stroke
0 0 0 nodecolor
14 /Times-Roman set_font
83 205.3 moveto 46 (Android) alignedtext
1 setlinewidth
0 0 0 nodecolor
newpath 53 197.5 moveto
159 197.5 lineto
stroke
0 0 0 nodecolor
14 /Times-Roman set_font
104 182.3 moveto 4 ( ) alignedtext
1 setlinewidth
0 0 0 nodecolor
newpath 53 174.5 moveto
159 174.5 lineto
stroke
0 0 0 nodecolor
14 /Times-Roman set_font
61 159.3 moveto 88 (+ play \(\) : Love) alignedtext
0 0 0 nodecolor
14 /Times-Roman set_font
61 144.3 moveto 90 (+ work \(\) : Hate) alignedtext
grestore
% record_ID_61->record_ID_63
gsave
1 setlinewidth
0 0 0 edgecolor
newpath 148.86 241.72 moveto
143.92 234.55 139.05 227.47 134.45 220.79 curveto
stroke
1 setlinewidth
solid
0 0 0 edgecolor
newpath 143.26 245.92 moveto
160.37 258.42 lineto
154.79 237.98 lineto
closepath stroke
grestore
% record_ID_64
gsave
1 setlinewidth
0 0 0 nodecolor
newpath 177 136.5 moveto
177 220.5 lineto
283 220.5 lineto
283 136.5 lineto
closepath stroke
0 0 0 nodecolor
14 /Times-Roman set_font
213 205.3 moveto 34 (Apple) alignedtext
1 setlinewidth
0 0 0 nodecolor
newpath 177 197.5 moveto
283 197.5 lineto
stroke
0 0 0 nodecolor
14 /Times-Roman set_font
228 182.3 moveto 4 ( ) alignedtext
1 setlinewidth
0 0 0 nodecolor
newpath 177 174.5 moveto
283 174.5 lineto
stroke
0 0 0 nodecolor
14 /Times-Roman set_font
185 159.3 moveto 88 (+ play \(\) : Love) alignedtext
0 0 0 nodecolor
14 /Times-Roman set_font
185 144.3 moveto 90 (+ work \(\) : Hate) alignedtext
grestore
% record_ID_61->record_ID_64
gsave
1 setlinewidth
0 0 0 edgecolor
newpath 216.4 238.74 moveto
217.81 232.59 219.2 226.54 220.52 220.79 curveto
stroke
1 setlinewidth
solid
0 0 0 edgecolor
newpath 209.53 237.36 moveto
211.88 258.42 lineto
223.18 240.49 lineto
closepath stroke
grestore
% record_ID_65
gsave
1 setlinewidth
0 0 0 nodecolor
newpath 301 136.5 moveto
301 220.5 lineto
407 220.5 lineto
407 136.5 lineto
closepath stroke
0 0 0 nodecolor
14 /Times-Roman set_font
327.5 205.3 moveto 53 (Windows) alignedtext
1 setlinewidth
0 0 0 nodecolor
newpath 301 197.5 moveto
407 197.5 lineto
stroke
0 0 0 nodecolor
14 /Times-Roman set_font
352 182.3 moveto 4 ( ) alignedtext
1 setlinewidth
0 0 0 nodecolor
newpath 301 174.5 moveto
407 174.5 lineto
stroke
0 0 0 nodecolor
14 /Times-Roman set_font
309 159.3 moveto 88 (+ play \(\) : Love) alignedtext
0 0 0 nodecolor
14 /Times-Roman set_font
309 144.3 moveto 90 (+ work \(\) : Hate) alignedtext
grestore
% record_ID_61->record_ID_65
gsave
1 setlinewidth
0 0 0 edgecolor
newpath 267.62 254.74 moveto
280.84 243.22 294.42 231.39 306.78 220.63 curveto
stroke
1 setlinewidth
solid
0 0 0 edgecolor
newpath 262.83 249.63 moveto
252.34 268.04 lineto
272.02 260.18 lineto
closepath stroke
grestore
% record_ID_63->record_ID_62
gsave
1 setlinewidth
dashed
0 0 0 edgecolor
newpath 89.67 136.2 moveto
84.43 122.96 78.56 108.13 73.09 94.29 curveto
stroke
0 0 0 edgecolor
newpath 69.37 84.89 moveto
77.23 92.54 lineto
71.21 89.54 lineto
73.05 94.19 lineto
73.05 94.19 lineto
73.05 94.19 lineto
71.21 89.54 lineto
68.86 95.85 lineto
69.37 84.89 lineto
closepath fill
1 setlinewidth
solid
0 0 0 edgecolor
newpath 69.37 84.89 moveto
77.23 92.54 lineto
71.21 89.54 lineto
73.05 94.19 lineto
73.05 94.19 lineto
73.05 94.19 lineto
71.21 89.54 lineto
68.86 95.85 lineto
69.37 84.89 lineto
closepath stroke
0 0 0 edgecolor
14 /Times-Roman set_font
82 106.8 moveto 61 (<<from>>) alignedtext
grestore
endpage
showpage
grestore
%%PageTrailer
%%EndPage: 1
%%Trailer
%%Pages: 1
%%BoundingBox: 36 36 451 417
end
restore
%%EOF
